<?xml version="1.0" standalone="no"?>
<!DOCTYPE svg PUBLIC "-//W3C//DTD SVG 1.1//EN" "http://www.w3.org/Graphics/SVG/1.1/DTD/svg11.dtd" >
<svg xmlns="http://www.w3.org/2000/svg">
<metadata>Generated by IcoMoon</metadata>
<defs>
<font id="icomoon" horiz-adv-x="1024">
<font-face units-per-em="1024" ascent="960" descent="-64" />
<missing-glyph horiz-adv-x="1024" />
<glyph unicode="&#x20;" horiz-adv-x="512" d="" />
<glyph unicode="&#xe900;" glyph-name="cloud" d="M368.029 439.365l-25.141 25.218 169.113 171.405 171.405-171.405-27.434-25.218-125.707 123.491v-553.189h-36.528v553.189zM841.132 617.724v4.509c0 73.208-26.288 135.642-78.863 187.453s-115.391 77.717-188.523 77.717c-0.568 0.004-1.24 0.007-1.913 0.007-52.336 0-101.091-15.33-142.021-41.744l1.032 0.624c-42.274-26.511-75.564-63.851-96.468-108.18l-0.66-1.556c-16.968 8.629-37.002 13.685-58.217 13.685-0.435 0-0.869-0.002-1.302-0.006l0.066 0.001c-33.471 0-62.816-11.386-87.957-34.235-24.068-21.551-40.909-50.731-46.716-83.714l-0.128-0.88c-41.612-13.868-76.092-39.827-100.231-73.671l-0.411-0.607c-24.271-33.091-38.838-74.621-38.838-119.553 0-0.955 0.007-1.908 0.020-2.859l-0.002 0.144c0-57.925 19.792-106.679 59.453-146.34 39.584-39.584 88.339-59.377 146.264-59.377h208.010v36.528h-208.010c-47.226 0-87.269 16.812-119.976 50.283-30.369 30.253-49.161 72.109-49.161 118.355 0 1 0.009 1.998 0.026 2.994l-0.002-0.15c0 36.528 10.622 70.075 31.943 100.566 19.636 28.857 47.971 50.515 81.195 61.357l1.107 0.312 20.556 6.878 2.293 20.556c4.585 25.906 16.43 47.226 35.458 64.038 16.986 15.589 39.729 25.142 64.704 25.142 0.142 0 0.284 0 0.427-0.001h-0.022c15.284 0 30.491-3.821 45.774-11.463l31.943-13.679 13.755 29.727c19.932 39.655 49.076 72.105 84.737 95.412l0.928 0.569c33.705 22.874 75.284 36.521 120.051 36.528h0.002c63.962 0 118.448-21.703 163.381-65.108 45.010-43.405 67.477-97.127 67.477-161.165v-45.698l34.235-2.293c41.189 0 76.571-15.971 106.297-47.99 27.573-28.603 44.559-67.576 44.559-110.516 0-0.532-0.003-1.063-0.008-1.594l0.001 0.081c0-42.641-14.443-78.863-43.405-108.513-26.273-27.54-63.256-44.664-104.239-44.664-1.127 0-2.251 0.013-3.371 0.039l0.167-0.003h-230.859v-36.528h230.859c51.811 0 96.057 18.646 132.585 56.014 33.89 33.407 54.885 79.817 54.885 131.131 0 0.887-0.006 1.773-0.019 2.658l0.001-0.134c0 53.34-17.882 99.038-53.722 137.17-31.908 35.179-77.795 57.18-128.82 57.18-0.921 0-1.84-0.007-2.757-0.021l0.138 0.002z" />
<glyph unicode="&#xe901;" glyph-name="cloud-mini" d="M368.029 439.365l-25.141 25.218 169.113 171.405 171.405-171.405-27.434-25.218-125.707 123.491v-553.189h-36.528v553.189zM841.132 617.724v4.509c0 73.208-26.288 135.642-78.863 187.453s-115.391 77.717-188.523 77.717c-0.568 0.004-1.24 0.007-1.913 0.007-52.336 0-101.091-15.33-142.021-41.744l1.032 0.624c-42.274-26.511-75.564-63.851-96.468-108.18l-0.66-1.556c-16.968 8.629-37.002 13.685-58.217 13.685-0.435 0-0.869-0.002-1.302-0.006l0.066 0.001c-33.471 0-62.816-11.386-87.957-34.235-24.068-21.551-40.909-50.731-46.716-83.714l-0.128-0.88c-41.612-13.868-76.092-39.827-100.231-73.671l-0.411-0.607c-24.271-33.091-38.838-74.621-38.838-119.553 0-0.955 0.007-1.908 0.020-2.859l-0.002 0.144c0-57.925 19.792-106.679 59.453-146.34 39.584-39.584 88.339-59.377 146.264-59.377h208.010v36.528h-208.010c-47.226 0-87.269 16.812-119.976 50.283-30.369 30.253-49.161 72.109-49.161 118.355 0 1 0.009 1.998 0.026 2.994l-0.002-0.15c0 36.528 10.622 70.075 31.943 100.566 19.636 28.857 47.971 50.515 81.195 61.357l1.107 0.312 20.556 6.878 2.293 20.556c4.585 25.906 16.43 47.226 35.458 64.038 16.986 15.589 39.729 25.142 64.704 25.142 0.142 0 0.284 0 0.427-0.001h-0.022c15.284 0 30.491-3.821 45.774-11.463l31.943-13.679 13.755 29.727c19.932 39.655 49.076 72.105 84.737 95.412l0.928 0.569c33.705 22.874 75.284 36.521 120.051 36.528h0.002c63.962 0 118.448-21.703 163.381-65.108 45.010-43.405 67.477-97.127 67.477-161.165v-45.698l34.235-2.293c41.189 0 76.571-15.971 106.297-47.99 27.573-28.603 44.559-67.576 44.559-110.516 0-0.532-0.003-1.063-0.008-1.594l0.001 0.081c0-42.641-14.443-78.863-43.405-108.513-26.273-27.54-63.256-44.664-104.239-44.664-1.127 0-2.251 0.013-3.371 0.039l0.167-0.003h-230.859v-36.528h230.859c51.811 0 96.057 18.646 132.585 56.014 33.89 33.407 54.885 79.817 54.885 131.131 0 0.887-0.006 1.773-0.019 2.658l0.001-0.134c0 53.34-17.882 99.038-53.722 137.17-31.908 35.179-77.795 57.18-128.82 57.18-0.921 0-1.84-0.007-2.757-0.021l0.138 0.002z" />
<glyph unicode="&#xe902;" glyph-name="earth" d="M512 956.609c140.173 0 260.001-49.708 359.417-149.192 99.484-99.416 149.192-219.245 149.192-359.417s-49.708-260.001-149.192-359.417c-99.416-99.484-219.245-149.192-359.417-149.192s-260.001 49.708-359.417 149.192c-99.484 99.416-149.192 219.245-149.192 359.417s49.708 260.001 149.192 359.417c99.416 99.484 219.245 149.192 359.417 149.192zM531.531 653.41v-185.88h183.438c-1.628 75.003-10.579 143.496-26.922 205.41-42.384-9.765-94.534-16.275-156.516-19.531zM531.531 692.539c60.355 3.255 109.249 9.765 146.751 19.531-16.275 55.472-37.908 100.705-64.831 135.697-26.855 35.060-54.184 56.693-81.92 64.831zM492.469 912.598c-58.727-14.648-107.622-81.513-146.751-200.528 39.129-9.765 88.023-16.275 146.751-19.531zM492.469 653.41c-63.61 3.255-116.573 9.765-158.957 19.531-16.343-61.915-25.295-130.407-26.922-205.41h185.88zM267.461 467.531c3.255 86.464 12.274 158.144 26.922 215.243-54.98 15.859-102.866 36.675-147.312 62.727l3.002-1.626c-65.17-78.258-100.23-170.35-105.113-276.344zM267.461 428.469h-222.5c4.883-105.994 39.943-198.086 105.113-276.344 55.472 29.364 103.553 49.708 144.309 61.101-14.648 57.1-23.667 128.78-26.922 215.243zM306.59 428.469c1.628-75.003 10.579-143.496 26.922-205.41 46.212 10.815 100.651 18.649 156.332 21.851l2.626 0.121v183.438zM492.469 203.461c-58.727-3.255-107.622-9.765-146.751-19.531 39.129-119.015 88.023-185.88 146.751-200.528zM531.531-16.598c27.736 8.138 55.065 29.771 81.92 64.831 26.922 34.992 48.555 80.225 64.831 135.697-37.501 9.765-86.396 16.275-146.751 19.531zM531.531 245.031c52.217-1.628 104.367-8.952 156.516-21.972 16.343 61.915 25.295 130.407 26.922 205.41h-183.438zM756.539 428.469c-3.255-79.886-13.088-151.633-29.364-215.243 44.012-13.020 92.906-33.365 146.751-61.101 65.17 78.258 100.23 170.35 105.113 276.344zM756.539 467.531h222.5c-4.883 105.994-39.943 198.086-105.113 276.344-55.472-29.364-103.553-49.708-144.309-61.101 14.648-57.1 23.667-128.78 26.922-215.243zM844.563 775.68c-65.238 65.17-139.359 107.554-222.5 127.152 37.434-39.129 69.239-99.484 95.347-180.997 49.126 15.779 91.191 34.021 131.050 55.795l-3.898-1.95zM401.937 902.832c-88.447-20.132-164.336-65.016-222.275-126.91l-0.224-0.242c26.109-14.716 68.493-31.805 127.152-51.336 24.481 78.19 56.218 137.731 95.347 178.488zM179.437 120.32c65.238-65.17 139.359-107.554 222.5-127.152-40.757 42.384-73.308 102.739-97.789 180.997-48.563-16.474-89.763-34.672-129.025-55.987l4.314 2.143zM622.063-6.832c83.141 19.598 157.262 61.983 222.5 127.152-35.961 19.824-78.026 38.066-121.875 52.357l-5.277 1.488c-26.109-81.513-57.914-141.868-95.347-180.997z" />
<glyph unicode="&#xe903;" glyph-name="earth-mini" d="M512 956.609c140.173 0 260.001-49.708 359.417-149.192 99.484-99.416 149.192-219.245 149.192-359.417s-49.708-260.001-149.192-359.417c-99.416-99.484-219.245-149.192-359.417-149.192s-260.001 49.708-359.417 149.192c-99.484 99.416-149.192 219.245-149.192 359.417s49.708 260.001 149.192 359.417c99.416 99.484 219.245 149.192 359.417 149.192zM531.531 653.41v-185.88h183.438c-1.628 75.003-10.579 143.496-26.922 205.41-42.384-9.765-94.534-16.275-156.516-19.531zM531.531 692.539c60.355 3.255 109.249 9.765 146.751 19.531-16.275 55.472-37.908 100.705-64.831 135.697-26.855 35.060-54.184 56.693-81.92 64.831zM492.469 912.598c-58.727-14.648-107.622-81.513-146.751-200.528 39.129-9.765 88.023-16.275 146.751-19.531zM492.469 653.41c-63.61 3.255-116.573 9.765-158.957 19.531-16.343-61.915-25.295-130.407-26.922-205.41h185.88zM267.461 467.531c3.255 86.464 12.274 158.144 26.922 215.243-54.98 15.859-102.866 36.675-147.312 62.727l3.002-1.626c-65.17-78.258-100.23-170.35-105.113-276.344zM267.461 428.469h-222.5c4.883-105.994 39.943-198.086 105.113-276.344 55.472 29.364 103.553 49.708 144.309 61.101-14.648 57.1-23.667 128.78-26.922 215.243zM306.59 428.469c1.628-75.003 10.579-143.496 26.922-205.41 46.212 10.815 100.651 18.649 156.332 21.851l2.626 0.121v183.438zM492.469 203.461c-58.727-3.255-107.622-9.765-146.751-19.531 39.129-119.015 88.023-185.88 146.751-200.528zM531.531-16.598c27.736 8.138 55.065 29.771 81.92 64.831 26.922 34.992 48.555 80.225 64.831 135.697-37.501 9.765-86.396 16.275-146.751 19.531zM531.531 245.031c52.217-1.628 104.367-8.952 156.516-21.972 16.343 61.915 25.295 130.407 26.922 205.41h-183.438zM756.539 428.469c-3.255-79.886-13.088-151.633-29.364-215.243 44.012-13.020 92.906-33.365 146.751-61.101 65.17 78.258 100.23 170.35 105.113 276.344zM756.539 467.531h222.5c-4.883 105.994-39.943 198.086-105.113 276.344-55.472-29.364-103.553-49.708-144.309-61.101 14.648-57.1 23.667-128.78 26.922-215.243zM844.563 775.68c-65.238 65.17-139.359 107.554-222.5 127.152 37.434-39.129 69.239-99.484 95.347-180.997 49.126 15.779 91.191 34.021 131.050 55.795l-3.898-1.95zM401.937 902.832c-88.447-20.132-164.336-65.016-222.275-126.91l-0.224-0.242c26.109-14.716 68.493-31.805 127.152-51.336 24.481 78.19 56.218 137.731 95.347 178.488zM179.437 120.32c65.238-65.17 139.359-107.554 222.5-127.152-40.757 42.384-73.308 102.739-97.789 180.997-48.563-16.474-89.763-34.672-129.025-55.987l4.314 2.143zM622.063-6.832c83.141 19.598 157.262 61.983 222.5 127.152-35.961 19.824-78.026 38.066-121.875 52.357l-5.277 1.488c-26.109-81.513-57.914-141.868-95.347-180.997z" />
<glyph unicode="&#xe904;" glyph-name="expirence" d="M24.986 430.899c3.301-27.143 21.466-49.344 45.997-58.413l0.493-0.16 41.37-374.784c2.010-16.232 15.717-28.672 32.33-28.672 0.010 0 0.020 0 0.030 0h65.432c0.012 0 0.026 0 0.040 0 16.633 0 30.363 12.432 32.404 28.51l0.017 0.162 19.251 175.206 46.182 428.442c0.213 2.164 2.002 3.848 4.194 3.891h0.004l234.598 15.77c17.297 0.672 31.396 13.54 33.971 30.213l0.025 0.2c0.148 1.187 0.232 2.561 0.232 3.955 0 8.354-3.031 16-8.054 21.898l0.040-0.048c-5.949 6.963-14.518 11.535-24.163 12.18l-0.106 0.006-264.397 16.896-43.725 0.819c-0.018 0-0.040 0-0.061 0-1.243 0-2.357-0.554-3.109-1.429l-0.005-0.005-51.61-63.898c-1.946-2.355-4.915-3.686-7.987-3.686s-6.042 1.331-7.987 3.686l-51.61 63.795c-0.806 0.917-1.97 1.502-3.271 1.536h-31.34c-24.064 0-46.899-10.24-62.874-28.058-13.195-14.573-21.271-33.996-21.271-55.306 0-3.461 0.213-6.872 0.627-10.221l-0.040 0.401zM1019.699 317.133v516.198c-0.232 36.131-29.576 65.332-65.74 65.332-0.072 0-0.145 0-0.217 0h-632.002c9.866-19.682 15.642-42.886 15.642-67.438 0-7.311-0.512-14.501-1.502-21.539l0.093 0.81h594.125v-469.811h-590.029l-9.523-89.088h179.302l-188.109-230.4c-4.413-5.409-7.087-12.389-7.087-19.993 0-10.041 4.662-18.993 11.939-24.809l2.828-2.199c5.483-4.41 12.529-7.078 20.198-7.078 10.080 0 19.083 4.609 25.018 11.834l0.045 0.056 161.997 199.27v-178.586c0.116-17.613 14.421-31.847 32.051-31.847 0.072 0 0.144 0 0.216 0.001h3.573c0.061 0 0.133-0.001 0.205-0.001 17.63 0 31.935 14.234 32.050 31.836v178.597l161.69-199.27c5.979-7.282 14.983-11.891 25.063-11.891 7.669 0 14.716 2.668 20.261 7.127l2.702 2.102c7.34 5.866 12.002 14.818 12.002 24.858 0 7.604-2.674 14.584-7.132 20.050l0.045-0.057-187.392 230.4h321.741c0.122-0.001 0.266-0.001 0.41-0.001 36.195 0 65.536 29.341 65.536 65.536 0 0 0 0.001 0 0.001v0zM178.688 929.28c-0.074 0-0.161 0-0.248 0-41.050 0-76.302-24.825-91.561-60.281l-0.248-0.648c-4.797-11.158-7.586-24.145-7.586-37.784 0-27.341 11.208-52.064 29.281-69.824l0.014-0.014c18.12-17.755 42.958-28.712 70.356-28.712 13.85 0 27.046 2.8 39.053 7.865l-0.661-0.247c36.186 15.213 61.133 50.367 61.133 91.349 0 0.069 0 0.138 0 0.208v-0.011c-0.636 54.314-44.814 98.1-99.219 98.1-0.11 0-0.22 0-0.331-0.001h0.017zM545.178 394.035c0.002 0 0.005 0 0.008 0 12.904 0 23.406 10.289 23.748 23.111l0.001 0.032v112.026c-0.116 13.032-10.707 23.552-23.756 23.552 0 0-0.001 0-0.001 0h-52.224c-0.030 0-0.067 0-0.103 0-13.028 0-23.596-10.532-23.654-23.547v-112.032c0-13.005 10.65-23.552 23.757-23.552zM699.29 394.035c0.002 0 0.005 0 0.008 0 12.904 0 23.406 10.289 23.748 23.111l0.001 0.032v179.302c-0.116 13.032-10.707 23.552-23.756 23.552 0 0-0.001 0-0.001 0h-52.224c0 0-0.001 0-0.001 0-13.049 0-23.64-10.52-23.756-23.541v-179.313c0-13.005 10.65-23.552 23.757-23.552zM801.178 393.626c-0.030 0-0.067 0-0.103 0-13.028 0-23.596 10.532-23.654 23.547v309.561c0.058 12.964 10.58 23.45 23.552 23.45 0.072 0 0.144 0 0.216-0.001h52.213c0.061 0.001 0.133 0.001 0.205 0.001 12.972 0 23.494-10.487 23.552-23.445v-309.561c-0.287-12.842-10.765-23.143-23.649-23.143-0.038 0-0.076 0-0.114 0h0.006z" />
<glyph unicode="&#xe905;" glyph-name="ion-ios-cloud-upload-outline---ionicons" d="M368.029 439.365l-25.141 25.218 169.113 171.405 171.405-171.405-27.434-25.218-125.707 123.491v-553.189h-36.528v553.189zM841.132 617.724v4.509c0 73.208-26.288 135.642-78.863 187.453s-115.391 77.717-188.523 77.717c-0.568 0.004-1.24 0.007-1.913 0.007-52.336 0-101.091-15.33-142.021-41.744l1.032 0.624c-42.274-26.511-75.564-63.851-96.468-108.18l-0.66-1.556c-16.968 8.629-37.002 13.685-58.217 13.685-0.435 0-0.869-0.002-1.302-0.006l0.066 0.001c-33.471 0-62.816-11.386-87.957-34.235-24.068-21.551-40.909-50.731-46.716-83.714l-0.128-0.88c-41.612-13.868-76.092-39.827-100.231-73.671l-0.411-0.607c-24.271-33.091-38.838-74.621-38.838-119.553 0-0.955 0.007-1.908 0.020-2.859l-0.002 0.144c0-57.925 19.792-106.679 59.453-146.34 39.584-39.584 88.339-59.377 146.264-59.377h208.010v36.528h-208.010c-47.226 0-87.269 16.812-119.976 50.283-30.369 30.253-49.161 72.109-49.161 118.355 0 1 0.009 1.998 0.026 2.994l-0.002-0.15c0 36.528 10.622 70.075 31.943 100.566 19.636 28.857 47.971 50.515 81.195 61.357l1.107 0.312 20.556 6.878 2.293 20.556c4.585 25.906 16.43 47.226 35.458 64.038 16.986 15.589 39.729 25.142 64.704 25.142 0.142 0 0.284 0 0.427-0.001h-0.022c15.284 0 30.491-3.821 45.774-11.463l31.943-13.679 13.755 29.727c19.932 39.655 49.076 72.105 84.737 95.412l0.928 0.569c33.705 22.874 75.284 36.521 120.051 36.528h0.002c63.962 0 118.448-21.703 163.381-65.108 45.010-43.405 67.477-97.127 67.477-161.165v-45.698l34.235-2.293c41.189 0 76.571-15.971 106.297-47.99 27.573-28.603 44.559-67.576 44.559-110.516 0-0.532-0.003-1.063-0.008-1.594l0.001 0.081c0-42.641-14.443-78.863-43.405-108.513-26.273-27.54-63.256-44.664-104.239-44.664-1.127 0-2.251 0.013-3.371 0.039l0.167-0.003h-230.859v-36.528h230.859c51.811 0 96.057 18.646 132.585 56.014 33.89 33.407 54.885 79.817 54.885 131.131 0 0.887-0.006 1.773-0.019 2.658l0.001-0.134c0 53.34-17.882 99.038-53.722 137.17-31.908 35.179-77.795 57.18-128.82 57.18-0.921 0-1.84-0.007-2.757-0.021l0.138 0.002z" />
<glyph unicode="&#xe906;" glyph-name="ion-ios-world-outline---ionicons" d="M512 956.609c140.173 0 260.001-49.708 359.417-149.192 99.484-99.416 149.192-219.245 149.192-359.417s-49.708-260.001-149.192-359.417c-99.416-99.484-219.245-149.192-359.417-149.192s-260.001 49.708-359.417 149.192c-99.484 99.416-149.192 219.245-149.192 359.417s49.708 260.001 149.192 359.417c99.416 99.484 219.245 149.192 359.417 149.192zM531.531 653.41v-185.88h183.438c-1.628 75.003-10.579 143.496-26.922 205.41-42.384-9.765-94.534-16.275-156.516-19.531zM531.531 692.539c60.355 3.255 109.249 9.765 146.751 19.531-16.275 55.472-37.908 100.705-64.831 135.697-26.855 35.060-54.184 56.693-81.92 64.831zM492.469 912.598c-58.727-14.648-107.622-81.513-146.751-200.528 39.129-9.765 88.023-16.275 146.751-19.531zM492.469 653.41c-63.61 3.255-116.573 9.765-158.957 19.531-16.343-61.915-25.295-130.407-26.922-205.41h185.88zM267.461 467.531c3.255 86.464 12.274 158.144 26.922 215.243-54.98 15.859-102.866 36.675-147.312 62.727l3.002-1.626c-65.17-78.258-100.23-170.35-105.113-276.344zM267.461 428.469h-222.5c4.883-105.994 39.943-198.086 105.113-276.344 55.472 29.364 103.553 49.708 144.309 61.101-14.648 57.1-23.667 128.78-26.922 215.243zM306.59 428.469c1.628-75.003 10.579-143.496 26.922-205.41 46.212 10.815 100.651 18.649 156.332 21.851l2.626 0.121v183.438zM492.469 203.461c-58.727-3.255-107.622-9.765-146.751-19.531 39.129-119.015 88.023-185.88 146.751-200.528zM531.531-16.598c27.736 8.138 55.065 29.771 81.92 64.831 26.922 34.992 48.555 80.225 64.831 135.697-37.501 9.765-86.396 16.275-146.751 19.531zM531.531 245.031c52.217-1.628 104.367-8.952 156.516-21.972 16.343 61.915 25.295 130.407 26.922 205.41h-183.438zM756.539 428.469c-3.255-79.886-13.088-151.633-29.364-215.243 44.012-13.020 92.906-33.365 146.751-61.101 65.17 78.258 100.23 170.35 105.113 276.344zM756.539 467.531h222.5c-4.883 105.994-39.943 198.086-105.113 276.344-55.472-29.364-103.553-49.708-144.309-61.101 14.648-57.1 23.667-128.78 26.922-215.243zM844.563 775.68c-65.238 65.17-139.359 107.554-222.5 127.152 37.434-39.129 69.239-99.484 95.347-180.997 49.126 15.779 91.191 34.021 131.050 55.795l-3.898-1.95zM401.937 902.832c-88.447-20.132-164.336-65.016-222.275-126.91l-0.224-0.242c26.109-14.716 68.493-31.805 127.152-51.336 24.481 78.19 56.218 137.731 95.347 178.488zM179.437 120.32c65.238-65.17 139.359-107.554 222.5-127.152-40.757 42.384-73.308 102.739-97.789 180.997-48.563-16.474-89.763-34.672-129.025-55.987l4.314 2.143zM622.063-6.832c83.141 19.598 157.262 61.983 222.5 127.152-35.961 19.824-78.026 38.066-121.875 52.357l-5.277 1.488c-26.109-81.513-57.914-141.868-95.347-180.997z" />
<glyph unicode="&#xe907;" glyph-name="productivite" d="M705.741 612.045c-0.075 1.194-0.118 2.589-0.118 3.994 0 37.334 30.265 67.6 67.6 67.6 35.929 0 65.312-28.030 67.472-63.416l0.009-0.19c0.075-1.194 0.118-2.589 0.118-3.994 0-37.334-30.265-67.6-67.6-67.6-35.929 0-65.312 28.030-67.472 63.416l-0.009 0.19zM734.72 613.786c1.251-20.316 18.034-36.318 38.554-36.318 21.331 0 38.622 17.292 38.622 38.622 0 0.811-0.025 1.615-0.074 2.413l0.005-0.109c-1.251 20.316-18.034 36.318-38.554 36.318-21.331 0-38.622-17.292-38.622-38.622 0-0.811 0.025-1.615 0.074-2.413l-0.005 0.109zM991.539 558.285l-16.896-8.499-0.102-0.102-109.568-55.398 9.421-179.61c0.307-4.915 0-9.728-0.819-14.541l-21.709-121.651 111.206-178.074-69.12-44.339-121.958 195.482 0.41 0.41-0.819 0.205 18.637 103.322-16.794-0.922-47.514-119.91-24.166-193.536-73.933 9.216 25.293 202.342-0.102 0.102 54.579 137.83-11.162 186.88-107.725 49.357-77.722-65.331-0.102 0.102c-4.903-4.507-11.471-7.269-18.684-7.269-2.051 0-4.049 0.223-5.973 0.647l0.183-0.034c-4.632-3.626-10.541-5.814-16.961-5.814-15.27 0-27.648 12.378-27.648 27.648s12.378 27.648 27.648 27.648c2.091 0 4.128-0.232 6.087-0.672l-0.185 0.035-0.102 0.102 104.96 87.757 131.277-60.211 118.886 7.27 119.603 60.518-47.923 96.154v0.102c-1.988 3.721-3.156 8.138-3.156 12.829 0 12.714 8.581 23.423 20.268 26.652l0.194 0.046c2.117 0.575 4.547 0.905 7.055 0.905 11.039 0 20.584-6.399 25.128-15.69l0.073-0.165h0.102l72.294-145.306zM217.19 610.406c0 0.061 0 0.133 0 0.205 0 37.326 30.259 67.584 67.584 67.584 37.254 0 67.468-30.142 67.584-67.368v-0.011c0-0.061 0-0.133 0-0.205 0-37.326-30.259-67.584-67.584-67.584-37.254 0-67.468 30.142-67.584 67.368v0.011zM246.17 610.509c0-21.377 17.33-38.707 38.707-38.707s38.707 17.33 38.707 38.707c0 21.377-17.33 38.707-38.707 38.707-0.036 0-0.072 0-0.108 0h0.006c0 0 0 0 0 0-21.321 0-38.605-17.284-38.605-38.605 0-0.036 0-0.072 0-0.108v0.006zM335.36 193.638l129.229-207.36-69.12-44.339-121.754 195.482-31.334 113.357-129.741-132.301-16.794-177.357-74.138 6.963 19.149 203.366h0.102l-0.102 0.205 122.266 124.621v231.322l-157.491 224.768c-3.632 4.634-5.824 10.548-5.824 16.974 0 15.27 12.378 27.648 27.648 27.648 9.834 0 18.468-5.134 23.37-12.867l0.067-0.113h0.102l163.021-232.858h51.712l0.205-0.307c18.416-1.754 34.098-12.078 43.174-26.888l0.141-0.248h0.102l119.808-158.72 13.21-118.989h-0.102c0.105-0.906 0.165-1.957 0.165-3.021 0-15.276-12.384-27.66-27.66-27.66-14.212 0-25.92 10.718-27.483 24.513l-0.012 0.127-11.571 103.936-58.061 76.902v-137.114c0-4.506 0.614-9.114 1.843-13.414zM480.666 888.013v57.242c0 5.325 4.301 9.626 9.626 9.626s9.728-4.301 9.728-9.626v-57.242c53.862-4.915 96.256-50.176 96.256-105.267-1.831-57.099-48.558-102.69-105.933-102.69s-104.102 45.591-105.929 102.522l-0.004 0.168c0 55.091 42.394 100.352 96.256 105.267zM404.378 792.371h27.443c0.41 9.83 1.638 19.251 3.482 28.058h-22.733c-4.191-8.152-7.097-17.654-8.162-27.705l-0.030-0.353zM435.302 745.062c-1.843 8.806-3.072 18.227-3.482 28.058h-27.443c1.024-9.933 3.891-19.456 8.192-28.058zM449.126 706.765c-3.277 5.632-6.144 12.083-8.499 19.046h-15.258c6.674-7.586 14.528-13.938 23.311-18.819l0.446-0.227zM480.666 725.811h-19.456c3.883-10.802 10.622-19.786 19.311-26.315l0.145-0.104zM519.475 725.811h-19.456v-26.419c8.834 6.633 15.573 15.618 19.332 26.027l0.124 0.392zM529.51 773.12h-29.491v-28.058h25.6c1.946 8.499 3.379 17.92 3.891 28.058zM576.307 773.12h-27.443c-0.512-9.83-1.741-19.251-3.482-28.058h22.733c4.198 8.602 7.066 18.125 8.192 28.058zM545.382 820.429c1.741-8.806 2.97-18.227 3.482-28.058h27.443c-1.204 10.414-4.099 19.901-8.416 28.554l0.224-0.496zM531.558 858.726c3.277-5.632 6.144-12.083 8.499-18.944h15.155c-6.646 7.546-14.465 13.864-23.21 18.718l-0.445 0.226zM531.558 706.765c9.208 5.080 17.032 11.435 23.566 18.943l0.088 0.103h-15.155c-2.458-6.963-5.222-13.312-8.499-19.046zM525.619 820.429h-25.6v-28.058h29.491c-0.512 10.138-1.946 19.558-3.891 28.058zM500.019 866.099v-26.317h19.456c-3.883 10.769-10.623 19.721-19.309 26.212l-0.147 0.105zM461.21 839.782h19.456v26.317c-8.833-6.595-15.573-15.547-19.333-25.927l-0.123-0.39zM451.174 792.371h29.491v28.058h-25.6c-2.048-8.499-3.379-17.92-3.891-28.058zM451.072 773.12c0.614-10.138 1.946-19.558 3.994-28.058h25.6v28.058zM425.37 839.782h15.258c2.458 6.861 5.222 13.312 8.499 18.944-9.211-5.108-17.060-11.422-23.679-18.855l-0.078-0.089zM490.291 662.118c5.427 0 9.728-4.301 9.728-9.626v-32.256c0-5.325-4.301-9.626-9.728-9.626-5.316 0-9.626 4.31-9.626 9.626v0 32.256c0 5.325 4.301 9.626 9.626 9.626zM317.952 782.746c0 5.325 4.301 9.626 9.626 9.626h32.256c5.316 0 9.626-4.31 9.626-9.626s-4.31-9.626-9.626-9.626v0h-32.256c-5.316 0-9.626 4.31-9.626 9.626v0zM620.851 792.371h32.256c5.316 0 9.626-4.31 9.626-9.626s-4.31-9.626-9.626-9.626v0h-32.256c-5.316 0-9.626 4.31-9.626 9.626s4.31 9.626 9.626 9.626v0zM368.435 890.778c-1.75 1.759-2.831 4.183-2.831 6.861s1.082 5.102 2.832 6.861v0c1.742 1.744 4.15 2.823 6.81 2.823s5.067-1.079 6.81-2.822v0l22.835-22.733c3.789-3.789 3.789-9.933 0-13.722-1.78-1.702-4.198-2.75-6.861-2.75s-5.081 1.048-6.864 2.754l0.004-0.004zM612.25 674.714c3.789-3.789 3.789-9.933 0-13.619-1.715-1.769-4.113-2.868-6.768-2.868-0.033 0-0.065 0-0.098 0h0.005c-0.023 0-0.050 0-0.078 0-2.628 0-4.998 1.1-6.677 2.864l-0.004 0.004-22.835 22.733c-1.744 1.742-2.823 4.15-2.823 6.81s1.079 5.067 2.822 6.81v0c1.759 1.75 4.183 2.831 6.861 2.831s5.102-1.082 6.861-2.832v0zM404.89 697.446c3.789-3.789 3.789-9.83 0-13.619l-22.835-22.733c-1.682-1.768-4.053-2.868-6.681-2.868-0.027 0-0.055 0-0.082 0h0.004c-0.028 0-0.060 0-0.093 0-2.655 0-5.053 1.098-6.766 2.865l-0.002 0.002c-1.744 1.742-2.823 4.15-2.823 6.81s1.079 5.067 2.822 6.81v0l22.733 22.733c1.759 1.75 4.183 2.831 6.861 2.831s5.102-1.082 6.861-2.832v0zM582.656 865.28c2.458 0 4.915 0.922 6.758 2.765l22.835 22.733c1.75 1.759 2.831 4.183 2.831 6.861s-1.082 5.102-2.832 6.861v0c-1.742 1.744-4.15 2.823-6.81 2.823s-5.067-1.079-6.81-2.822v0l-22.835-22.733c-1.75-1.759-2.831-4.183-2.831-6.861s1.082-5.102 2.832-6.861v0c1.843-1.843 4.403-2.765 6.861-2.765z" />
<glyph unicode="&#xe908;" glyph-name="reliability" d="M596.428 824.163c2.194-17.45 2.194-34.795 0-52.245l52.245-21.734-10.867-28.317h71.889v-34.9c8.673-2.090 15.256-6.478 23.928-8.673l26.122 26.122 60.918-60.918-26.122-26.122c4.389-6.583 6.583-15.256 8.777-23.928h34.795v-87.144h-34.795c-2.194-8.673-6.583-15.256-8.777-23.928l26.122-26.122-60.918-60.918-30.511 23.928c-6.478-4.389-15.256-6.583-23.928-8.673v-34.9h-87.040v34.9c-8.777 2.090-15.256 6.478-23.928 8.673l-26.122-26.122-61.022 60.918 26.122 26.122c-4.284 6.583-6.478 15.256-8.673 23.928h-34.795v71.889l-28.317-10.867-21.838 52.245c-10.867-2.194-19.54-2.194-30.407-2.194s-19.644 0-30.511 2.194l-21.734-52.245-80.562 32.601 21.734 52.245c-16.465 11.147-30.231 24.913-41.039 40.847l-0.339 0.531-52.245-21.734-32.601 80.562 52.245 21.734c-1.048 7.845-1.646 16.914-1.646 26.122s0.598 18.278 1.757 27.171l-0.112-1.048h-224.235v-748.878h1023.164v748.878zM239.491 116.663h-43.572v333.113h43.572zM435.409 116.663h-43.572v426.632h43.572zM631.327 116.663h-43.572v204.591h43.572zM827.246 116.663h-43.572v261.224h43.572z" />
<glyph unicode="&#xe909;" glyph-name="shape" d="M800.72 80.64c1.52-7.12-3.040-14.16-10.16-15.6-9.849-2.178-21.162-3.426-32.766-3.426-66.599 0-123.597 41.101-147.015 99.321l-0.378 1.065c-7.128 17.397-11.266 37.589-11.266 58.746 0 47.304 20.684 89.778 53.5 118.87l0.166 0.144-13.92 2c-6.074 1.266-10.572 6.576-10.572 12.936 0 7.29 5.91 13.2 13.2 13.2 0.427 0 0.849-0.020 1.265-0.060l-0.053 0.004 50.24-7.44c6.408-1.020 11.248-6.507 11.248-13.124 0-0.648-0.046-1.285-0.136-1.908l0.008 0.071-7.44-50.24c-0.969-6.411-6.435-11.27-13.039-11.28h-0.001l-1.92 0.16c-6.407 0.98-11.258 6.451-11.258 13.056 0 0.672 0.050 1.332 0.147 1.976l-0.009-0.073 3.6 24.16c-29.805-24.437-48.674-61.26-48.674-102.489 0-17.63 3.45-34.455 9.712-49.835l-0.318 0.884c19.868-49.492 67.452-83.802 123.050-83.802 9.657 0 19.073 1.035 28.142 3.001l-0.872-0.158c7.040 1.52 14.080-3.040 15.52-10.16zM1024 218.88c-0.182-147.293-119.514-266.653-266.778-266.88h-0.022c-121.808 0.218-224.466 81.956-256.34 193.556l-0.46 1.884h-456.4c-24.301 0-44 19.699-44 44v0 149.52c0 24.24 19.76 44 44 44h504.32c10.54 13.191 21.839 24.896 34.137 35.472l0.343 0.288h-538.8c-24.282 0.045-43.955 19.718-44 43.996v149.604c0.046 24.266 19.728 43.92 44 43.92 0 0 0 0 0 0h683.44c0 0 0 0 0 0 24.272 0 43.954-19.654 44-43.916v-129.124c140.993-7.269 252.561-123.359 252.561-265.508 0-0.285 0-0.571-0.001-0.856v0.044zM618.8 447.040c36.042 22.227 79.314 36.182 125.681 38.22l0.559 0.020v129.040c0 9.72-7.88 17.6-17.6 17.6h-683.44c-0.024 0-0.052 0-0.080 0-9.72 0-17.6-7.88-17.6-17.6 0 0 0 0 0 0v0-149.6c0-9.76 7.92-17.68 17.68-17.68zM470.88 313.92h37.2c6.552 17.215 13.951 31.949 22.63 45.799l-0.63-1.079h-486.080c-9.76 0-17.68-7.92-17.68-17.68v-149.6c0-9.68 7.92-17.6 17.68-17.6h450.48c-2.496 13.389-3.976 28.846-4.080 44.629v0.091h-19.52c-7.28 0-13.2 5.84-13.2 13.12v69.2c0 7.28 5.92 13.12 13.2 13.12zM484.080 287.6v-42.8h7.68l0.64 7.28c1.52 12.16 4.080 23.92 7.2 35.52zM997.6 218.88c0.001 0.262 0.002 0.572 0.002 0.883 0 100.284-61.652 186.169-149.121 221.82l-1.6 0.577c-26.552 11.030-57.392 17.436-89.728 17.436-45.969 0-88.915-12.946-125.39-35.39l1.038 0.594c-1.28-1.36-2.88-2.4-4.64-3.12-23.374-14.97-43.253-32.966-59.781-53.746l-0.379-0.494c-0.8-2.32-2.24-4.32-4.16-5.76-29.425-39.204-47.121-88.681-47.121-142.291 0-0.179 0-0.358 0.001-0.537v0.028c0.137-132.775 107.712-240.378 240.463-240.56h0.017c132.752 0.182 240.309 107.795 240.4 240.551v0.009zM865.92 103.84l16.16-2.4c6.358-1.025 11.155-6.472 11.155-13.041 0-7.246-5.839-13.129-13.068-13.199h-0.007l-1.92 0.16-50.24 7.44c-3.546 0.594-6.568 2.489-8.616 5.167l-0.024 0.033c-1.601 2.123-2.564 4.805-2.564 7.712 0 0.723 0.060 1.432 0.174 2.123l-0.010-0.075 7.44 50.24c1.040 7.2 7.76 12.080 14.96 11.12 7.2-1.040 12.16-7.76 11.040-14.96l-3.2-21.92c26.943 24.346 43.802 59.416 43.802 98.423 0 17.654-3.453 34.501-9.72 49.903l0.319-0.886c-19.923 49.484-67.531 83.778-123.149 83.778-9.622 0-19.003-1.026-28.042-2.975l0.871 0.157c-7.2-1.44-14.080 3.040-15.52 10.16-0.186 0.828-0.292 1.778-0.292 2.754 0 6.301 4.442 11.565 10.366 12.831l0.086 0.015c9.819 2.163 21.098 3.402 32.667 3.402 66.618 0 123.641-41.083 147.114-99.296l0.379-1.065c7.13-17.385 11.268-37.562 11.268-58.707 0-46.213-19.77-87.808-51.314-116.79l-0.115-0.104zM82.72 825.2c1.022 11.872 10.911 21.122 22.96 21.122s21.938-9.25 22.954-21.036l0.006-0.086c0-12.68-10.28-22.96-22.96-22.96s-22.96 10.28-22.96 22.96v0zM102.32 825.2c0-3.68 6.8-3.68 6.8 0 0 1.878-1.522 3.4-3.4 3.4s-3.4-1.522-3.4-3.4v0zM178.24 825.2c0 12.68 10.28 22.96 22.96 22.96s22.96-10.28 22.96-22.96v0c0-12.68-10.28-22.96-22.96-22.96s-22.96 10.28-22.96 22.96v0zM197.76 825.2c0-3.68 6.8-3.68 6.8 0 0 1.878-1.522 3.4-3.4 3.4s-3.4-1.522-3.4-3.4v0zM273.68 825.2c0 12.68 10.28 22.96 22.96 22.96s22.96-10.28 22.96-22.96v0c0-12.68-10.28-22.96-22.96-22.96s-22.96 10.28-22.96 22.96v0zM293.2 825.2c0-3.68 6.8-3.68 6.8 0 0 1.878-1.522 3.4-3.4 3.4s-3.4-1.522-3.4-3.4v0zM204.56 539.52c0 1.878-1.522 3.4-3.4 3.4s-3.4-1.522-3.4-3.4v0c0-3.76 6.8-3.76 6.8 0zM224.080 266.16c-0.045-12.646-10.308-22.88-22.96-22.88-12.681 0-22.96 10.28-22.96 22.96 0 0.028 0 0.056 0 0.084v-0.004c0.045 12.646 10.308 22.88 22.96 22.88 12.681 0 22.96-10.28 22.96-22.96 0-0.028 0-0.056 0-0.084v0.004zM204.56 266.16c0 1.878-1.522 3.4-3.4 3.4s-3.4-1.522-3.4-3.4v0c0-3.76 6.8-3.76 6.8 0zM319.52 539.52c0-12.68-10.28-22.96-22.96-22.96s-22.96 10.28-22.96 22.96v0c0 12.68 10.28 22.96 22.96 22.96s22.96-10.28 22.96-22.96v0zM300 539.52c0 1.878-1.522 3.4-3.4 3.4s-3.4-1.522-3.4-3.4v0c0-3.76 6.8-3.76 6.8 0zM128.64 266.16c-0.045-12.646-10.308-22.88-22.96-22.88-12.681 0-22.96 10.28-22.96 22.96 0 0.028 0 0.056 0 0.084v-0.004c0.045 12.646 10.308 22.88 22.96 22.88 12.681 0 22.96-10.28 22.96-22.96 0-0.028 0-0.056 0-0.084v0.004zM109.12 266.16c0 1.878-1.522 3.4-3.4 3.4s-3.4-1.522-3.4-3.4v0c0-3.76 6.72-3.76 6.8 0zM0 750.48v149.52c0 24.24 19.76 44 44 44h683.44c24.266-0.046 43.92-19.728 43.92-44 0 0 0 0 0 0v0-149.52c0 0 0 0 0 0 0-24.272-19.654-43.954-43.916-44h-683.444c-24.301 0-44 19.699-44 44v0zM26.32 750.48c0-9.76 7.92-17.68 17.68-17.68h683.44c0 0 0 0 0 0 9.72 0 17.6 7.88 17.6 17.6 0 0.028 0 0.056 0 0.084v-0.004 149.52c0 0.024 0 0.052 0 0.080 0 9.72-7.88 17.6-17.6 17.6 0 0 0 0 0 0h-683.44c-9.76 0-17.68-7.92-17.68-17.68zM319.52 266.16c0-12.636-10.244-22.88-22.88-22.88s-22.88 10.244-22.88 22.88v0c0 12.636 10.244 22.88 22.88 22.88s22.88-10.244 22.88-22.88v0zM300 266.16c0 1.878-1.522 3.4-3.4 3.4s-3.4-1.522-3.4-3.4v0c0-3.76 6.8-3.76 6.8 0zM128.64 539.52c-1.022-11.872-10.911-21.122-22.96-21.122s-21.938 9.25-22.954 21.036l-0.006 0.086c0 12.68 10.28 22.96 22.96 22.96s22.96-10.28 22.96-22.96v0zM109.12 539.52c0 1.878-1.522 3.4-3.4 3.4s-3.4-1.522-3.4-3.4v0c0-3.76 6.72-3.76 6.8 0zM457.68 790.64v69.2c0 7.28 5.92 13.12 13.2 13.12h69.12c7.28 0 13.2-5.84 13.2-13.12v-69.2c0-7.28-5.92-13.12-13.2-13.12h-69.12c-7.28 0-13.2 5.84-13.2 13.12zM484.080 803.84h42.72v42.8h-42.72zM593.12 790.64v69.2c0 7.28 5.84 13.12 13.12 13.12h69.12c7.28 0 13.2-5.84 13.2-13.12v-69.2c0-7.28-5.92-13.12-13.2-13.12h-69.12c-7.28 0-13.12 5.84-13.12 13.12zM619.44 803.84h42.8v42.8h-42.8zM553.2 574.080v-69.2c0-7.2-5.92-13.12-13.2-13.12h-69.12c-7.28 0-13.2 5.92-13.2 13.12v69.2c0 7.28 5.92 13.12 13.2 13.12h69.12c7.28 0 13.2-5.84 13.2-13.12zM526.8 560.88h-42.72v-42.8h42.72zM675.36 491.76h-69.12c-7.28 0-13.12 5.92-13.12 13.12v69.2c0 7.28 5.84 13.12 13.12 13.12h69.12c7.28 0 13.2-5.84 13.2-13.12v-69.2c0-7.2-5.92-13.12-13.2-13.12zM662.24 560.88h-42.8v-42.8h42.8z" />
<glyph unicode="&#xe90a;" glyph-name="shape-mini" d="M800.72 80.64c1.52-7.12-3.040-14.16-10.16-15.6-9.849-2.178-21.162-3.426-32.766-3.426-66.599 0-123.597 41.101-147.015 99.321l-0.378 1.065c-7.128 17.397-11.266 37.589-11.266 58.746 0 47.304 20.684 89.778 53.5 118.87l0.166 0.144-13.92 2c-6.074 1.266-10.572 6.576-10.572 12.936 0 7.29 5.91 13.2 13.2 13.2 0.427 0 0.849-0.020 1.265-0.060l-0.053 0.004 50.24-7.44c6.408-1.020 11.248-6.507 11.248-13.124 0-0.648-0.046-1.285-0.136-1.908l0.008 0.071-7.44-50.24c-0.969-6.411-6.435-11.27-13.039-11.28h-0.001l-1.92 0.16c-6.407 0.98-11.258 6.451-11.258 13.056 0 0.672 0.050 1.332 0.147 1.976l-0.009-0.073 3.6 24.16c-29.805-24.437-48.674-61.26-48.674-102.489 0-17.63 3.45-34.455 9.712-49.835l-0.318 0.884c19.868-49.492 67.452-83.802 123.050-83.802 9.657 0 19.073 1.035 28.142 3.001l-0.872-0.158c7.040 1.52 14.080-3.040 15.52-10.16zM1024 218.88c-0.182-147.293-119.514-266.653-266.778-266.88h-0.022c-121.808 0.218-224.466 81.956-256.34 193.556l-0.46 1.884h-456.4c-24.301 0-44 19.699-44 44v0 149.52c0 24.24 19.76 44 44 44h504.32c10.54 13.191 21.839 24.896 34.137 35.472l0.343 0.288h-538.8c-24.282 0.045-43.955 19.718-44 43.996v149.604c0.046 24.266 19.728 43.92 44 43.92 0 0 0 0 0 0h683.44c0 0 0 0 0 0 24.272 0 43.954-19.654 44-43.916v-129.124c140.993-7.269 252.561-123.359 252.561-265.508 0-0.285 0-0.571-0.001-0.856v0.044zM618.8 447.040c36.042 22.227 79.314 36.182 125.681 38.22l0.559 0.020v129.040c0 9.72-7.88 17.6-17.6 17.6h-683.44c-0.024 0-0.052 0-0.080 0-9.72 0-17.6-7.88-17.6-17.6 0 0 0 0 0 0v0-149.6c0-9.76 7.92-17.68 17.68-17.68zM470.88 313.92h37.2c6.552 17.215 13.951 31.949 22.63 45.799l-0.63-1.079h-486.080c-9.76 0-17.68-7.92-17.68-17.68v-149.6c0-9.68 7.92-17.6 17.68-17.6h450.48c-2.496 13.389-3.976 28.846-4.080 44.629v0.091h-19.52c-7.28 0-13.2 5.84-13.2 13.12v69.2c0 7.28 5.92 13.12 13.2 13.12zM484.080 287.6v-42.8h7.68l0.64 7.28c1.52 12.16 4.080 23.92 7.2 35.52zM997.6 218.88c0.001 0.262 0.002 0.572 0.002 0.883 0 100.284-61.652 186.169-149.121 221.82l-1.6 0.577c-26.552 11.030-57.392 17.436-89.728 17.436-45.969 0-88.915-12.946-125.39-35.39l1.038 0.594c-1.28-1.36-2.88-2.4-4.64-3.12-23.374-14.97-43.253-32.966-59.781-53.746l-0.379-0.494c-0.8-2.32-2.24-4.32-4.16-5.76-29.425-39.204-47.121-88.681-47.121-142.291 0-0.179 0-0.358 0.001-0.537v0.028c0.137-132.775 107.712-240.378 240.463-240.56h0.017c132.752 0.182 240.309 107.795 240.4 240.551v0.009zM865.92 103.84l16.16-2.4c6.358-1.025 11.155-6.472 11.155-13.041 0-7.246-5.839-13.129-13.068-13.199h-0.007l-1.92 0.16-50.24 7.44c-3.546 0.594-6.568 2.489-8.616 5.167l-0.024 0.033c-1.601 2.123-2.564 4.805-2.564 7.712 0 0.723 0.060 1.432 0.174 2.123l-0.010-0.075 7.44 50.24c1.040 7.2 7.76 12.080 14.96 11.12 7.2-1.040 12.16-7.76 11.040-14.96l-3.2-21.92c26.943 24.346 43.802 59.416 43.802 98.423 0 17.654-3.453 34.501-9.72 49.903l0.319-0.886c-19.923 49.484-67.531 83.778-123.149 83.778-9.622 0-19.003-1.026-28.042-2.975l0.871 0.157c-7.2-1.44-14.080 3.040-15.52 10.16-0.186 0.828-0.292 1.778-0.292 2.754 0 6.301 4.442 11.565 10.366 12.831l0.086 0.015c9.819 2.163 21.098 3.402 32.667 3.402 66.618 0 123.641-41.083 147.114-99.296l0.379-1.065c7.13-17.385 11.268-37.562 11.268-58.707 0-46.213-19.77-87.808-51.314-116.79l-0.115-0.104zM82.72 825.2c1.022 11.872 10.911 21.122 22.96 21.122s21.938-9.25 22.954-21.036l0.006-0.086c0-12.68-10.28-22.96-22.96-22.96s-22.96 10.28-22.96 22.96v0zM102.32 825.2c0-3.68 6.8-3.68 6.8 0 0 1.878-1.522 3.4-3.4 3.4s-3.4-1.522-3.4-3.4v0zM178.24 825.2c0 12.68 10.28 22.96 22.96 22.96s22.96-10.28 22.96-22.96v0c0-12.68-10.28-22.96-22.96-22.96s-22.96 10.28-22.96 22.96v0zM197.76 825.2c0-3.68 6.8-3.68 6.8 0 0 1.878-1.522 3.4-3.4 3.4s-3.4-1.522-3.4-3.4v0zM273.68 825.2c0 12.68 10.28 22.96 22.96 22.96s22.96-10.28 22.96-22.96v0c0-12.68-10.28-22.96-22.96-22.96s-22.96 10.28-22.96 22.96v0zM293.2 825.2c0-3.68 6.8-3.68 6.8 0 0 1.878-1.522 3.4-3.4 3.4s-3.4-1.522-3.4-3.4v0zM204.56 539.52c0 1.878-1.522 3.4-3.4 3.4s-3.4-1.522-3.4-3.4v0c0-3.76 6.8-3.76 6.8 0zM224.080 266.16c-0.045-12.646-10.308-22.88-22.96-22.88-12.681 0-22.96 10.28-22.96 22.96 0 0.028 0 0.056 0 0.084v-0.004c0.045 12.646 10.308 22.88 22.96 22.88 12.681 0 22.96-10.28 22.96-22.96 0-0.028 0-0.056 0-0.084v0.004zM204.56 266.16c0 1.878-1.522 3.4-3.4 3.4s-3.4-1.522-3.4-3.4v0c0-3.76 6.8-3.76 6.8 0zM319.52 539.52c0-12.68-10.28-22.96-22.96-22.96s-22.96 10.28-22.96 22.96v0c0 12.68 10.28 22.96 22.96 22.96s22.96-10.28 22.96-22.96v0zM300 539.52c0 1.878-1.522 3.4-3.4 3.4s-3.4-1.522-3.4-3.4v0c0-3.76 6.8-3.76 6.8 0zM128.64 266.16c-0.045-12.646-10.308-22.88-22.96-22.88-12.681 0-22.96 10.28-22.96 22.96 0 0.028 0 0.056 0 0.084v-0.004c0.045 12.646 10.308 22.88 22.96 22.88 12.681 0 22.96-10.28 22.96-22.96 0-0.028 0-0.056 0-0.084v0.004zM109.12 266.16c0 1.878-1.522 3.4-3.4 3.4s-3.4-1.522-3.4-3.4v0c0-3.76 6.72-3.76 6.8 0zM0 750.48v149.52c0 24.24 19.76 44 44 44h683.44c24.266-0.046 43.92-19.728 43.92-44 0 0 0 0 0 0v0-149.52c0 0 0 0 0 0 0-24.272-19.654-43.954-43.916-44h-683.444c-24.301 0-44 19.699-44 44v0zM26.32 750.48c0-9.76 7.92-17.68 17.68-17.68h683.44c0 0 0 0 0 0 9.72 0 17.6 7.88 17.6 17.6 0 0.028 0 0.056 0 0.084v-0.004 149.52c0 0.024 0 0.052 0 0.080 0 9.72-7.88 17.6-17.6 17.6 0 0 0 0 0 0h-683.44c-9.76 0-17.68-7.92-17.68-17.68zM319.52 266.16c0-12.636-10.244-22.88-22.88-22.88s-22.88 10.244-22.88 22.88v0c0 12.636 10.244 22.88 22.88 22.88s22.88-10.244 22.88-22.88v0zM300 266.16c0 1.878-1.522 3.4-3.4 3.4s-3.4-1.522-3.4-3.4v0c0-3.76 6.8-3.76 6.8 0zM128.64 539.52c-1.022-11.872-10.911-21.122-22.96-21.122s-21.938 9.25-22.954 21.036l-0.006 0.086c0 12.68 10.28 22.96 22.96 22.96s22.96-10.28 22.96-22.96v0zM109.12 539.52c0 1.878-1.522 3.4-3.4 3.4s-3.4-1.522-3.4-3.4v0c0-3.76 6.72-3.76 6.8 0zM457.68 790.64v69.2c0 7.28 5.92 13.12 13.2 13.12h69.12c7.28 0 13.2-5.84 13.2-13.12v-69.2c0-7.28-5.92-13.12-13.2-13.12h-69.12c-7.28 0-13.2 5.84-13.2 13.12zM484.080 803.84h42.72v42.8h-42.72zM593.12 790.64v69.2c0 7.28 5.84 13.12 13.12 13.12h69.12c7.28 0 13.2-5.84 13.2-13.12v-69.2c0-7.28-5.92-13.12-13.2-13.12h-69.12c-7.28 0-13.12 5.84-13.12 13.12zM619.44 803.84h42.8v42.8h-42.8zM553.2 574.080v-69.2c0-7.2-5.92-13.12-13.2-13.12h-69.12c-7.28 0-13.2 5.92-13.2 13.12v69.2c0 7.28 5.92 13.12 13.2 13.12h69.12c7.28 0 13.2-5.84 13.2-13.12zM526.8 560.88h-42.72v-42.8h42.72zM675.36 491.76h-69.12c-7.28 0-13.12 5.92-13.12 13.12v69.2c0 7.28 5.84 13.12 13.12 13.12h69.12c7.28 0 13.2-5.84 13.2-13.12v-69.2c0-7.2-5.92-13.12-13.2-13.12zM662.24 560.88h-42.8v-42.8h42.8z" />
<glyph unicode="&#xe90b;" glyph-name="support" d="M965.928 511.259c-35.454 11.719-63.061 38.553-75.59 72.668l-0.267 0.831c-4.567 12.182-7.211 26.26-7.211 40.956 0 22.986 6.467 44.461 17.681 62.705l-0.298-0.521c20.48 33.886 17.314 75.385-7.815 103.276l-3.907 4.312c-15.543 16.783-37.695 27.255-62.294 27.255-13.861 0-26.945-3.325-38.498-9.22l0.48 0.222c-15.86-8.298-34.644-13.166-54.564-13.166-18.525 0-36.067 4.21-51.72 11.726l0.718-0.311c-33.286 15.788-57.756 45.525-66.066 81.45l-0.157 0.807c-8.688 36.393-39.998 63.374-77.935 65.406l-0.213 0.009-5.928 0.269c-0.987 0.041-2.146 0.065-3.31 0.065-37.225 0-68.832-24.058-80.119-57.473l-0.175-0.596c-11.719-35.454-38.553-63.061-72.668-75.59l-0.831-0.267c-12.182-4.567-26.26-7.211-40.956-7.211-22.986 0-44.461 6.467-62.705 17.681l0.521-0.298c-33.819 20.48-75.385 17.314-103.276-7.815l-4.312-3.907c-16.775-15.553-27.239-37.709-27.239-62.309 0-13.854 3.319-26.933 9.205-38.484l-0.223 0.481c8.298-15.86 13.166-34.644 13.166-54.564 0-18.525-4.21-36.067-11.726-51.72l0.311 0.718c-15.763-33.305-45.511-57.786-81.452-66.067l-0.805-0.156c-36.426-8.674-63.427-40.029-65.406-78.007l-0.009-0.207-0.269-5.861c-0.038-0.95-0.060-2.065-0.060-3.184 0-37.273 24.043-68.931 57.467-80.311l0.597-0.177c35.463-11.669 63.080-38.491 75.591-72.602l0.266-0.83c4.567-12.182 7.211-26.26 7.211-40.956 0-22.986-6.467-44.461-17.681-62.705l0.298 0.521c-20.48-33.886-17.314-75.385 7.815-103.276l3.907-4.312c15.543-16.783 37.695-27.255 62.294-27.255 13.861 0 26.945 3.325 38.498 9.22l-0.48-0.222c15.842 8.276 34.602 13.131 54.496 13.131 18.552 0 36.117-4.222 51.788-11.758l-0.718 0.311c33.298-15.772 57.776-45.516 66.067-81.451l0.157-0.806c8.693-36.377 40.007-63.338 77.938-65.339l0.21-0.009 5.928-0.269 3.301-0.067c36.312 0 69.053 23.444 80.303 58.072 11.715 35.436 38.519 63.035 72.601 75.589l0.831 0.268c12.191 4.568 26.278 7.212 40.984 7.212 22.999 0 44.488-6.468 62.746-17.683l-0.522 0.298c33.886-20.48 75.385-17.314 103.276 7.815l4.312 3.907c16.775 15.553 27.239 37.709 27.239 62.309 0 13.854-3.319 26.933-9.205 38.484l0.223-0.481c-8.298 15.86-13.166 34.644-13.166 54.564 0 18.525 4.21 36.067 11.726 51.72l-0.311-0.718c15.832 33.752 45.811 57.937 82.257 66.223 36.414 8.695 63.404 40.038 65.406 78.005l0.009 0.21 0.269 5.861c0.039 0.959 0.061 2.084 0.061 3.214 0 37.249-24.050 68.881-57.469 80.215l-0.596 0.176zM512 694.703c67.638 0 122.611-55.040 122.611-122.611 0-67.638-54.973-122.611-122.611-122.611-67.701 0.038-122.572 54.91-122.611 122.607v0.004c0 67.571 54.973 122.611 122.611 122.611zM696.657 201.297h-369.314c-10.939 0-19.806 8.868-19.806 19.806v0 30.653c0.098 83.27 66.123 151.087 148.68 154.064l0.272 0.008c1.819 0.067 3.571 0.337 5.389 0.337h100.177c1.819 0 3.571-0.269 5.389-0.337 82.857-2.948 148.92-70.779 149.019-154.062v-30.124c0-11.453-8.825-20.345-19.806-20.345z" />
<glyph unicode="&#xe90c;" glyph-name="support-mini" d="M965.928 511.259c-35.454 11.719-63.061 38.553-75.59 72.668l-0.267 0.831c-4.567 12.182-7.211 26.26-7.211 40.956 0 22.986 6.467 44.461 17.681 62.705l-0.298-0.521c20.48 33.886 17.314 75.385-7.815 103.276l-3.907 4.312c-15.543 16.783-37.695 27.255-62.294 27.255-13.861 0-26.945-3.325-38.498-9.22l0.48 0.222c-15.86-8.298-34.644-13.166-54.564-13.166-18.525 0-36.067 4.21-51.72 11.726l0.718-0.311c-33.286 15.788-57.756 45.525-66.066 81.45l-0.157 0.807c-8.688 36.393-39.998 63.374-77.935 65.406l-0.213 0.009-5.928 0.269c-0.987 0.041-2.146 0.065-3.31 0.065-37.225 0-68.832-24.058-80.119-57.473l-0.175-0.596c-11.719-35.454-38.553-63.061-72.668-75.59l-0.831-0.267c-12.182-4.567-26.26-7.211-40.956-7.211-22.986 0-44.461 6.467-62.705 17.681l0.521-0.298c-33.819 20.48-75.385 17.314-103.276-7.815l-4.312-3.907c-16.775-15.553-27.239-37.709-27.239-62.309 0-13.854 3.319-26.933 9.205-38.484l-0.223 0.481c8.298-15.86 13.166-34.644 13.166-54.564 0-18.525-4.21-36.067-11.726-51.72l0.311 0.718c-15.763-33.305-45.511-57.786-81.452-66.067l-0.805-0.156c-36.426-8.674-63.427-40.029-65.406-78.007l-0.009-0.207-0.269-5.861c-0.038-0.95-0.060-2.065-0.060-3.184 0-37.273 24.043-68.931 57.467-80.311l0.597-0.177c35.463-11.669 63.080-38.491 75.591-72.602l0.266-0.83c4.567-12.182 7.211-26.26 7.211-40.956 0-22.986-6.467-44.461-17.681-62.705l0.298 0.521c-20.48-33.886-17.314-75.385 7.815-103.276l3.907-4.312c15.543-16.783 37.695-27.255 62.294-27.255 13.861 0 26.945 3.325 38.498 9.22l-0.48-0.222c15.842 8.276 34.602 13.131 54.496 13.131 18.552 0 36.117-4.222 51.788-11.758l-0.718 0.311c33.298-15.772 57.776-45.516 66.067-81.451l0.157-0.806c8.693-36.377 40.007-63.338 77.938-65.339l0.21-0.009 5.928-0.269 3.301-0.067c36.312 0 69.053 23.444 80.303 58.072 11.715 35.436 38.519 63.035 72.601 75.589l0.831 0.268c12.191 4.568 26.278 7.212 40.984 7.212 22.999 0 44.488-6.468 62.746-17.683l-0.522 0.298c33.886-20.48 75.385-17.314 103.276 7.815l4.312 3.907c16.775 15.553 27.239 37.709 27.239 62.309 0 13.854-3.319 26.933-9.205 38.484l0.223-0.481c-8.298 15.86-13.166 34.644-13.166 54.564 0 18.525 4.21 36.067 11.726 51.72l-0.311-0.718c15.832 33.752 45.811 57.937 82.257 66.223 36.414 8.695 63.404 40.038 65.406 78.005l0.009 0.21 0.269 5.861c0.039 0.959 0.061 2.084 0.061 3.214 0 37.249-24.050 68.881-57.469 80.215l-0.596 0.176zM512 694.703c67.638 0 122.611-55.040 122.611-122.611 0-67.638-54.973-122.611-122.611-122.611-67.701 0.038-122.572 54.91-122.611 122.607v0.004c0 67.571 54.973 122.611 122.611 122.611zM696.657 201.297h-369.314c-10.939 0-19.806 8.868-19.806 19.806v0 30.653c0.098 83.27 66.123 151.087 148.68 154.064l0.272 0.008c1.819 0.067 3.571 0.337 5.389 0.337h100.177c1.819 0 3.571-0.269 5.389-0.337 82.857-2.948 148.92-70.779 149.019-154.062v-30.124c0-11.453-8.825-20.345-19.806-20.345z" />
<glyph unicode="&#xe90d;" glyph-name="trust" d="M1000.038 696.73h-286.208c3.686 9.728 2.97 20.992-1.536 30.618-10.445 19.456-36.557 18.022-41.062 17.203h-180.122c-97.997 0-134.554-38.093-136.090-38.81-58.266-55.296-118.067-54.579-125.542-53.862l-210.022 1.536c-5.222 0-9.728-2.253-13.517-5.222-3.686-3.789-5.939-8.294-5.939-13.517v-311.603c0-10.547 8.192-19.456 19.456-19.456h83.661c10.445 0 19.456 8.192 19.456 19.456v29.901c1.536 2.15 5.939 8.192 20.173 8.192 8.192 0 15.667-1.536 23.962-4.506l238.387-168.96c3.789-2.97 37.376-30.618 75.469-30.618 3.072 0 6.042 0 9.728 0.717 17.656 2.319 32.996 10.801 44.075 23.177l0.060 0.068c11.234-10.136 26.19-16.337 42.594-16.337 6.689 0 13.138 1.031 19.195 2.943l-0.451-0.123c13.077 2.319 23.991 10.073 30.506 20.795l0.111 0.197c2.253 3.686 3.686 7.475 4.506 11.162 8.435-5.41 18.728-8.623 29.772-8.623 7.578 0 14.802 1.513 21.387 4.254l-0.369-0.136c2.97 0.819 32.154 11.264 36.659 31.437 29.901-20.89 67.277-32.87 91.853-11.981 4.506 2.97 33.69 22.426 35.123 54.579 0.061 1.034 0.096 2.244 0.096 3.462 0 12.915-3.939 24.91-10.681 34.849l0.139-0.218 8.294 2.253v-14.131c0-0.030 0-0.066 0-0.102 0-15.665 12.699-28.365 28.365-28.365 0 0 0 0 0 0h118.886c15.75 0.4 28.365 13.263 28.365 29.073 0 0.039 0 0.078 0 0.117v-0.006 381.133c0 10.547-8.192 19.456-18.739 19.456zM680.141 270.746l-1.434-1.536c-4.612-5.474-7.415-12.605-7.415-20.39 0-5.387 1.342-10.46 3.709-14.904l-0.083 0.171c-2.253-1.536-4.506-2.253-6.656-2.97-15.77-5.222-20.275 2.253-20.992 3.686-4.861 10.638-15.409 17.898-27.652 17.898-4.017 0-7.852-0.782-11.361-2.201l0.203 0.073c-10.969-4.692-18.515-15.391-18.515-27.853 0-3.142 0.48-6.172 1.37-9.020l-0.058 0.214c0.717-2.253 0.717-3.789 0.717-6.042-1.536-0.717-2.97-2.15-4.506-2.15-1.434 0-2.253-0.819-3.686-0.819-9.728-3.686-20.173-0.717-26.931 6.758-5.293 7.655-14.023 12.606-23.91 12.606s-18.617-4.951-23.847-12.509l-0.063-0.096c-5.26-8.612-14.175-14.547-24.535-15.655l-0.144-0.012c-25.395-2.97-55.296 20.89-55.296 21.606l-2.253 1.536-239.923 168.96c-2.149 1.411-4.616 2.654-7.224 3.606l-0.251 0.080c-10.863 3.875-23.404 6.314-36.453 6.753l-0.206 0.005c-35.123 0-52.326-22.426-56.832-35.123-0.717-2.97-1.434-6.758-1.434-10.445v-12.8h-44.851v274.33l189.133-1.434c8.192-0.819 82.125-2.97 153.19 64.205l0.717 0.819s29.901 27.648 109.158 27.648h184.627c-1.536-4.506-3.789-9.728-6.042-14.234-0.717-1.434-1.434-3.686-2.97-5.222-0.717-0.717-1.434-1.536-1.434-2.97-3.789-2.253-15.77-8.192-43.418-11.264-5.222-0.717-10.445-0.717-15.667-1.434-28.365 1.434-121.037 2.97-177.152-49.357l-137.523-97.178c-11.981-6.758-47.821-29.184-49.357-67.277-0.717-25.395 13.517-47.821 41.882-65.741 9.011-6.758 58.266-38.093 124.826 8.909l70.963 50.074c7.199 5.893 15.698 10.517 24.971 13.377l0.527 0.14 20.89 4.506c8.192 0.717 16.486 1.434 24.678 0.717h51.61c1.434-0.717 2.97-2.253 4.403-3.789l2.253-2.15 167.424-149.504c2.253-2.253 5.222-4.506 6.758-6.042l1.536-1.434c8.192-7.475 14.95-16.486 19.354-26.931 0.819-2.97 1.536-5.222 1.536-8.192-0.717-11.264-13.414-22.426-17.92-24.678-1.536-0.819-2.97-2.253-4.506-2.97-4.506-3.789-11.981-2.253-17.92 0l-3.789 1.434c-15.761 7.195-29.309 16.219-41.187 27.043l0.125-0.112c-5.266 4.966-12.384 8.018-20.215 8.018-8.192 0-15.604-3.34-20.948-8.733l-0.002-0.002zM623.411 502.374c-3.542 2.709-7.85 4.598-12.545 5.306l-0.153 0.019h-50.176c-17.101 0.717-34.304-0.819-50.79-3.072l-10.445-2.253c-9.728-2.15-19.456-5.939-28.365-11.162-5.325-3.789-11.264-7.475-16.486-11.264-2.97-2.15-6.758-5.222-10.445-7.475l-57.549-40.346c-45.67-32.154-74.035-13.414-79.974-9.728l-1.536 0.819c-17.203 10.445-25.395 21.606-24.678 32.87 0.819 19.456 29.184 35.123 29.901 35.84 0.717 0.819 1.536 0.819 2.253 1.536l142.029 101.683c46.387 44.032 133.837 41.062 150.221 39.526h2.253c56.013 3.072 77.722 16.486 86.733 24.678h286.208v-353.485h-99.328l-0.819 24.678c0 8.909-6.656 17.101-16.384 18.637s-37.376-2.97-57.549-8.192l-1.536 1.434-1.536 1.536z" />
</font></defs></svg>